Recipes with rsample
…
The next section will explore recipes using bootstrap resampling is used for modeling:

library(rsample)
set.seed(7712)
bt_samples <- bootstraps(ames)
bt_samples

## # Bootstrap sampling 
## # A tibble: 25 x 2
##          splits          id
##          <list>       <chr>
##  1 <S3: rsplit> Bootstrap01
##  2 <S3: rsplit> Bootstrap02
##  3 <S3: rsplit> Bootstrap03
##  4 <S3: rsplit> Bootstrap04
##  5 <S3: rsplit> Bootstrap05
##  6 <S3: rsplit> Bootstrap06
##  7 <S3: rsplit> Bootstrap07
##  8 <S3: rsplit> Bootstrap08
##  9 <S3: rsplit> Bootstrap09
## 10 <S3: rsplit> Bootstrap10
## # ... with 15 more rows
bt_samples$splits[[1]]

## <2911/1055/2911>

Working with Resamples

We can add a recipe column to the tibble. rsample has a connivence function called prepper that can be used to call prep but has the split object as the first argument (for easier purrring):

library(purrr)

bt_samples$recipes <- map(bt_samples$splits, prepper, recipe = rec, retain = TRUE, verbose = FALSE)
bt_samples

## # Bootstrap sampling 
## # A tibble: 25 x 3
##          splits          id      recipes
##          <list>       <chr>       <list>
##  1 <S3: rsplit> Bootstrap01 <S3: recipe>
##  2 <S3: rsplit> Bootstrap02 <S3: recipe>
##  3 <S3: rsplit> Bootstrap03 <S3: recipe>
##  4 <S3: rsplit> Bootstrap04 <S3: recipe>
##  5 <S3: rsplit> Bootstrap05 <S3: recipe>
##  6 <S3: rsplit> Bootstrap06 <S3: recipe>
##  7 <S3: rsplit> Bootstrap07 <S3: recipe>
##  8 <S3: rsplit> Bootstrap08 <S3: recipe>
##  9 <S3: rsplit> Bootstrap09 <S3: recipe>
## 10 <S3: rsplit> Bootstrap10 <S3: recipe>
## # ... with 15 more rows
…
Now, to fit the model, the fit function only needs the recipe as input. This is because the above code used retain = TRUE. Otherwise, the split objects would also be needed to bake the recipe (as it will in the prediction function below).

fit_lm <- function(rec_obj, ...) 
  lm(..., data = juice(rec_obj, everything()))

bt_samples$lm_mod <- 
  map(
    bt_samples$recipes, 
    fit_lm, 
    Sale_Price ~ .
  )
bt_samples

## # Bootstrap sampling 
## # A tibble: 25 x 4
##          splits          id      recipes   lm_mod
##          <list>       <chr>       <list>   <list>
##  1 <S3: rsplit> Bootstrap01 <S3: recipe> <S3: lm>
##  2 <S3: rsplit> Bootstrap02 <S3: recipe> <S3: lm>
##  3 <S3: rsplit> Bootstrap03 <S3: recipe> <S3: lm>
##  4 <S3: rsplit> Bootstrap04 <S3: recipe> <S3: lm>
##  5 <S3: rsplit> Bootstrap05 <S3: recipe> <S3: lm>
##  6 <S3: rsplit> Bootstrap06 <S3: recipe> <S3: lm>
##  7 <S3: rsplit> Bootstrap07 <S3: recipe> <S3: lm>
##  8 <S3: rsplit> Bootstrap08 <S3: recipe> <S3: lm>
##  9 <S3: rsplit> Bootstrap09 <S3: recipe> <S3: lm>
## 10 <S3: rsplit> Bootstrap10 <S3: recipe> <S3: lm>
## # ... with 15 more rows
…
bt_samples$pred <- 
  pmap(
    lst(
      split_obj = bt_samples$splits, 
      rec_obj = bt_samples$recipes, 
      model_obj = bt_samples$lm_mod
    ),
    pred_lm 
  )
bt_samples

## # Bootstrap sampling 
## # A tibble: 25 x 5
##          splits          id      recipes   lm_mod                 pred
##          <list>       <chr>       <list>   <list>               <list>
##  1 <S3: rsplit> Bootstrap01 <S3: recipe> <S3: lm> <tibble [1,055 x 2]>
##  2 <S3: rsplit> Bootstrap02 <S3: recipe> <S3: lm> <tibble [1,084 x 2]>
##  3 <S3: rsplit> Bootstrap03 <S3: recipe> <S3: lm> <tibble [1,097 x 2]>
##  4 <S3: rsplit> Bootstrap04 <S3: recipe> <S3: lm> <tibble [1,031 x 2]>
##  5 <S3: rsplit> Bootstrap05 <S3: recipe> <S3: lm> <tibble [1,072 x 2]>
##  6 <S3: rsplit> Bootstrap06 <S3: recipe> <S3: lm> <tibble [1,071 x 2]>
##  7 <S3: rsplit> Bootstrap07 <S3: recipe> <S3: lm> <tibble [1,033 x 2]>
##  8 <S3: rsplit> Bootstrap08 <S3: recipe> <S3: lm> <tibble [1,042 x 2]>
##  9 <S3: rsplit> Bootstrap09 <S3: recipe> <S3: lm> <tibble [1,076 x 2]>
## 10 <S3: rsplit> Bootstrap10 <S3: recipe> <S3: lm> <tibble [1,067 x 2]>
## # ... with 15 more rows
…
