Working with rsets
…
For convenience, we’ll create a formula object that will be used later:

mod_form <- as.formula(Attrition ~ JobSatisfaction + Gender + MonthlyIncome)

To evaluate this model, we will use 10 repeats of 10-fold cross-validation and use the 100 holdout samples to evaluate the overall accuracy of the model.

First, let’s make the splits of the data:

library(rsample)
set.seed(4622)
rs_obj <- vfold_cv(attrition, v = 10, repeats = 10)
rs_obj
#> #  10-fold cross-validation repeated 10 times 
#> # A tibble: 100 x 3
#>    splits             id       id2   
#>    <list>             <chr>    <chr> 
#>  1 <split [1.3K/147]> Repeat01 Fold01
#>  2 <split [1.3K/147]> Repeat01 Fold02
#>  3 <split [1.3K/147]> Repeat01 Fold03
#>  4 <split [1.3K/147]> Repeat01 Fold04
#>  5 <split [1.3K/147]> Repeat01 Fold05
#>  6 <split [1.3K/147]> Repeat01 Fold06
#>  7 <split [1.3K/147]> Repeat01 Fold07
#>  8 <split [1.3K/147]> Repeat01 Fold08
#>  9 <split [1.3K/147]> Repeat01 Fold09
#> 10 <split [1.3K/147]> Repeat01 Fold10
#> # … with 90 more rows
…
For this model, the .fitted value is the linear predictor in log-odds units.

To compute this data set for each of the 100 resamples, we’ll use the map function from the purrr package:

library(purrr)
rs_obj$results <- map(rs_obj$splits,
                      holdout_results,
                      mod_form)
rs_obj
#> #  10-fold cross-validation repeated 10 times 
#> # A tibble: 100 x 4
#>    splits             id       id2    results            
#>    <list>             <chr>    <chr>  <list>             
#>  1 <split [1.3K/147]> Repeat01 Fold01 <tibble [147 × 35]>
#>  2 <split [1.3K/147]> Repeat01 Fold02 <tibble [147 × 35]>
#>  3 <split [1.3K/147]> Repeat01 Fold03 <tibble [147 × 35]>
#>  4 <split [1.3K/147]> Repeat01 Fold04 <tibble [147 × 35]>
#>  5 <split [1.3K/147]> Repeat01 Fold05 <tibble [147 × 35]>
#>  6 <split [1.3K/147]> Repeat01 Fold06 <tibble [147 × 35]>
#>  7 <split [1.3K/147]> Repeat01 Fold07 <tibble [147 × 35]>
#>  8 <split [1.3K/147]> Repeat01 Fold08 <tibble [147 × 35]>
#>  9 <split [1.3K/147]> Repeat01 Fold09 <tibble [147 × 35]>
#> 10 <split [1.3K/147]> Repeat01 Fold10 <tibble [147 × 35]>
#> # … with 90 more rows
…
Bootstrap Estimates of Model Coefficients

Unless there is already a column in the resample object that contains the fitted model, a function can be used to fit the model and save all of the model coefficients. The broom package package has a tidy function that will save the coefficients in a data frame. Instead of returning a data frame with a row for each model term, we will save a data frame with a single row and columns for each model term. As before, purrr::map can be used to estimate and save these values for each split.

glm_coefs <- function(splits, ...) {
  ## use `analysis` or `as.data.frame` to get the analysis data
  mod <- glm(..., data = analysis(splits), family = binomial)
  as.data.frame(t(coef(mod)))
}
bt_resamples$betas <- map(.x = bt_resamples$splits, 
                          .f = glm_coefs, 
                          mod_form)
bt_resamples
#> # Bootstrap sampling 
#> # A tibble: 500 x 4
#>    splits             id           wage_diff betas               
#>    <list>             <chr>            <dbl> <list>              
#>  1 <split [1.5K/545]> Bootstrap001      80   <data.frame [1 × 6]>
#>  2 <split [1.5K/540]> Bootstrap002      68.5 <data.frame [1 × 6]>
#>  3 <split [1.5K/535]> Bootstrap003      20   <data.frame [1 × 6]>
#>  4 <split [1.5K/534]> Bootstrap004     177   <data.frame [1 × 6]>
#>  5 <split [1.5K/547]> Bootstrap005      18   <data.frame [1 × 6]>
#>  6 <split [1.5K/522]> Bootstrap006     594.  <data.frame [1 × 6]>
#>  7 <split [1.5K/540]> Bootstrap007     137   <data.frame [1 × 6]>
#>  8 <split [1.5K/526]> Bootstrap008      55   <data.frame [1 × 6]>
#>  9 <split [1.5K/531]> Bootstrap009      32.5 <data.frame [1 × 6]>
#> 10 <split [1.5K/546]> Bootstrap010     451   <data.frame [1 × 6]>
#> # … with 490 more rows
bt_resamples$betas[[1]]
#>   (Intercept) JobSatisfaction.L JobSatisfaction.Q JobSatisfaction.C GenderMale
#> 1      -0.828            -0.297            0.0979            -0.259      0.175
#>   MonthlyIncome
#> 1     -0.000135

Keeping Tidy

As previously mentioned, the broom package contains a class called tidy that created representations of objects that can be easily used for analysis, plotting, etc. rsample contains tidy methods for rset and rsplit objects. For example:

first_resample <- bt_resamples$splits[[1]]
class(first_resample)
#> [1] "rsplit"     "boot_split"
tidy(first_resample)
#> # A tibble: 1,470 x 2
#>      Row Data    
#>    <int> <chr>   
#>  1     1 Analysis
#>  2     4 Analysis
#>  3     5 Analysis
#>  4     9 Analysis
#>  5    14 Analysis
#>  6    15 Analysis
#>  7    16 Analysis
#>  8    22 Analysis
#>  9    23 Analysis
#> 10    24 Analysis
#> # … with 1,460 more rows

and

class(bt_resamples)
#> [1] "bootstraps" "rset"       "tbl_df"     "tbl"        "data.frame"
tidy(bt_resamples)
#> # A tibble: 735,000 x 3
#>      Row Data     Resample    
#>    <int> <chr>    <chr>       
#>  1     1 Analysis Bootstrap001
#>  2     1 Analysis Bootstrap003
#>  3     1 Analysis Bootstrap007
#>  4     1 Analysis Bootstrap008
#>  5     1 Analysis Bootstrap010
#>  6     1 Analysis Bootstrap011
#>  7     1 Analysis Bootstrap012
#>  8     1 Analysis Bootstrap013
#>  9     1 Analysis Bootstrap014
#> 10     1 Analysis Bootstrap015
#> # … with 734,990 more rows
